%YAML 1.1
%TAG !u! tag:unity3d.com,2011:
--- !u!1 &2073831600915182443
GameObject:
  m_ObjectHideFlags: 0
  m_CorrespondingSourceObject: {fileID: 0}
  m_PrefabInstance: {fileID: 0}
  m_PrefabAsset: {fileID: 0}
  serializedVersion: 6
  m_Component:
  - component: {fileID: 7320297610466010612}
  - component: {fileID: 4667930960281005346}
  m_Layer: 31
  m_Name: GrassPlatformPallete
  m_TagString: Untagged
  m_Icon: {fileID: 0}
  m_NavMeshLayer: 0
  m_StaticEditorFlags: 0
  m_IsActive: 1
--- !u!4 &7320297610466010612
Transform:
  m_ObjectHideFlags: 0
  m_CorrespondingSourceObject: {fileID: 0}
  m_PrefabInstance: {fileID: 0}
  m_PrefabAsset: {fileID: 0}
  m_GameObject: {fileID: 2073831600915182443}
  m_LocalRotation: {x: 0, y: 0, z: 0, w: 1}
  m_LocalPosition: {x: 0, y: 0, z: 0}
  m_LocalScale: {x: 1, y: 1, z: 1}
  m_Children:
  - {fileID: 8299429838315875789}
  m_Father: {fileID: 0}
  m_RootOrder: 0
  m_LocalEulerAnglesHint: {x: 0, y: 0, z: 0}
--- !u!156049354 &4667930960281005346
Grid:
  m_ObjectHideFlags: 0
  m_CorrespondingSourceObject: {fileID: 0}
  m_PrefabInstance: {fileID: 0}
  m_PrefabAsset: {fileID: 0}
  m_GameObject: {fileID: 2073831600915182443}
  m_Enabled: 1
  m_CellSize: {x: 2, y: 2, z: 0}
  m_CellGap: {x: 0, y: 0, z: 0}
  m_CellLayout: 0
  m_CellSwizzle: 0
--- !u!1 &5837772868813273263
GameObject:
  m_ObjectHideFlags: 0
  m_CorrespondingSourceObject: {fileID: 0}
  m_PrefabInstance: {fileID: 0}
  m_PrefabAsset: {fileID: 0}
  serializedVersion: 6
  m_Component:
  - component: {fileID: 8299429838315875789}
  - component: {fileID: 8731930264405049733}
  - component: {fileID: 6131239257120239860}
  m_Layer: 31
  m_Name: Layer1
  m_TagString: Untagged
  m_Icon: {fileID: 0}
  m_NavMeshLayer: 0
  m_StaticEditorFlags: 0
  m_IsActive: 1
--- !u!4 &8299429838315875789
Transform:
  m_ObjectHideFlags: 0
  m_CorrespondingSourceObject: {fileID: 0}
  m_PrefabInstance: {fileID: 0}
  m_PrefabAsset: {fileID: 0}
  m_GameObject: {fileID: 5837772868813273263}
  m_LocalRotation: {x: -0, y: -0, z: -0, w: 1}
  m_LocalPosition: {x: 0, y: 0, z: 0}
  m_LocalScale: {x: 1, y: 1, z: 1}
  m_Children: []
  m_Father: {fileID: 7320297610466010612}
  m_RootOrder: 0
  m_LocalEulerAnglesHint: {x: 0, y: 0, z: 0}
--- !u!1839735485 &8731930264405049733
Tilemap:
  m_ObjectHideFlags: 0
  m_CorrespondingSourceObject: {fileID: 0}
  m_PrefabInstance: {fileID: 0}
  m_PrefabAsset: {fileID: 0}
  m_GameObject: {fileID: 5837772868813273263}
  m_Enabled: 1
  m_Tiles:
  - first: {x: -1, y: -5, z: 0}
    second:
      m_TileIndex: 20
      m_TileSpriteIndex: 20
      m_TileMatrixIndex: 0
      m_TileColorIndex: 0
      m_ObjectToInstantiate: {fileID: 0}
      m_TileFlags: 1
      m_ColliderType: 1
  - first: {x: 0, y: -5, z: 0}
    second:
      m_TileIndex: 21
      m_TileSpriteIndex: 21
      m_TileMatrixIndex: 0
      m_TileColorIndex: 0
      m_ObjectToInstantiate: {fileID: 0}
      m_TileFlags: 1
      m_ColliderType: 1
  - first: {x: 1, y: -5, z: 0}
    second:
      m_TileIndex: 22
      m_TileSpriteIndex: 22
      m_TileMatrixIndex: 0
      m_TileColorIndex: 0
      m_ObjectToInstantiate: {fileID: 0}
      m_TileFlags: 1
      m_ColliderType: 1
  - first: {x: -1, y: -4, z: 0}
    second:
      m_TileIndex: 15
      m_TileSpriteIndex: 15
      m_TileMatrixIndex: 0
      m_TileColorIndex: 0
      m_ObjectToInstantiate: {fileID: 0}
      m_TileFlags: 1
      m_ColliderType: 1
  - first: {x: 0, y: -4, z: 0}
    second:
      m_TileIndex: 16
      m_TileSpriteIndex: 16
      m_TileMatrixIndex: 0
      m_TileColorIndex: 0
      m_ObjectToInstantiate: {fileID: 0}
      m_TileFlags: 1
      m_ColliderType: 1
  - first: {x: 1, y: -4, z: 0}
    second:
      m_TileIndex: 17
      m_TileSpriteIndex: 17
      m_TileMatrixIndex: 0
      m_TileColorIndex: 0
      m_ObjectToInstantiate: {fileID: 0}
      m_TileFlags: 1
      m_ColliderType: 1
  - first: {x: 2, y: -4, z: 0}
    second:
      m_TileIndex: 18
      m_TileSpriteIndex: 18
      m_TileMatrixIndex: 0
      m_TileColorIndex: 0
      m_ObjectToInstantiate: {fileID: 0}
      m_TileFlags: 1
      m_ColliderType: 1
  - first: {x: 3, y: -4, z: 0}
    second:
      m_TileIndex: 19
      m_TileSpriteIndex: 19
      m_TileMatrixIndex: 0
      m_TileColorIndex: 0
      m_ObjectToInstantiate: {fileID: 0}
      m_TileFlags: 1
      m_ColliderType: 1
  - first: {x: -1, y: -3, z: 0}
    second:
      m_TileIndex: 10
      m_TileSpriteIndex: 10
      m_TileMatrixIndex: 0
      m_TileColorIndex: 0
      m_ObjectToInstantiate: {fileID: 0}
      m_TileFlags: 1
      m_ColliderType: 1
  - first: {x: 0, y: -3, z: 0}
    second:
      m_TileIndex: 11
      m_TileSpriteIndex: 11
      m_TileMatrixIndex: 0
      m_TileColorIndex: 0
      m_ObjectToInstantiate: {fileID: 0}
      m_TileFlags: 1
      m_ColliderType: 1
  - first: {x: 1, y: -3, z: 0}
    second:
      m_TileIndex: 12
      m_TileSpriteIndex: 12
      m_TileMatrixIndex: 0
      m_TileColorIndex: 0
      m_ObjectToInstantiate: {fileID: 0}
      m_TileFlags: 1
      m_ColliderType: 1
  - first: {x: 2, y: -3, z: 0}
    second:
      m_TileIndex: 13
      m_TileSpriteIndex: 13
      m_TileMatrixIndex: 0
      m_TileColorIndex: 0
      m_ObjectToInstantiate: {fileID: 0}
      m_TileFlags: 1
      m_ColliderType: 1
  - first: {x: 3, y: -3, z: 0}
    second:
      m_TileIndex: 14
      m_TileSpriteIndex: 14
      m_TileMatrixIndex: 0
      m_TileColorIndex: 0
      m_ObjectToInstantiate: {fileID: 0}
      m_TileFlags: 1
      m_ColliderType: 1
  - first: {x: -1, y: -2, z: 0}
    second:
      m_TileIndex: 5
      m_TileSpriteIndex: 5
      m_TileMatrixIndex: 0
      m_TileColorIndex: 0
      m_ObjectToInstantiate: {fileID: 0}
      m_TileFlags: 1
      m_ColliderType: 1
  - first: {x: 0, y: -2, z: 0}
    second:
      m_TileIndex: 6
      m_TileSpriteIndex: 6
      m_TileMatrixIndex: 0
      m_TileColorIndex: 0
      m_ObjectToInstantiate: {fileID: 0}
      m_TileFlags: 1
      m_ColliderType: 1
  - first: {x: 1, y: -2, z: 0}
    second:
      m_TileIndex: 7
      m_TileSpriteIndex: 7
      m_TileMatrixIndex: 0
      m_TileColorIndex: 0
      m_ObjectToInstantiate: {fileID: 0}
      m_TileFlags: 1
      m_ColliderType: 1
  - first: {x: 2, y: -2, z: 0}
    second:
      m_TileIndex: 8
      m_TileSpriteIndex: 8
      m_TileMatrixIndex: 0
      m_TileColorIndex: 0
      m_ObjectToInstantiate: {fileID: 0}
      m_TileFlags: 1
      m_ColliderType: 1
  - first: {x: 3, y: -2, z: 0}
    second:
      m_TileIndex: 9
      m_TileSpriteIndex: 9
      m_TileMatrixIndex: 0
      m_TileColorIndex: 0
      m_ObjectToInstantiate: {fileID: 0}
      m_TileFlags: 1
      m_ColliderType: 1
  - first: {x: -1, y: -1, z: 0}
    second:
      m_TileIndex: 0
      m_TileSpriteIndex: 0
      m_TileMatrixIndex: 0
      m_TileColorIndex: 0
      m_ObjectToInstantiate: {fileID: 0}
      m_TileFlags: 1
      m_ColliderType: 1
  - first: {x: 0, y: -1, z: 0}
    second:
      m_TileIndex: 1
      m_TileSpriteIndex: 1
      m_TileMatrixIndex: 0
      m_TileColorIndex: 0
      m_ObjectToInstantiate: {fileID: 0}
      m_TileFlags: 1
      m_ColliderType: 1
  - first: {x: 1, y: -1, z: 0}
    second:
      m_TileIndex: 2
      m_TileSpriteIndex: 2
      m_TileMatrixIndex: 0
      m_TileColorIndex: 0
      m_ObjectToInstantiate: {fileID: 0}
      m_TileFlags: 1
      m_ColliderType: 1
  - first: {x: 2, y: -1, z: 0}
    second:
      m_TileIndex: 3
      m_TileSpriteIndex: 3
      m_TileMatrixIndex: 0
      m_TileColorIndex: 0
      m_ObjectToInstantiate: {fileID: 0}
      m_TileFlags: 1
      m_ColliderType: 1
  - first: {x: 3, y: -1, z: 0}
    second:
      m_TileIndex: 4
      m_TileSpriteIndex: 4
      m_TileMatrixIndex: 0
      m_TileColorIndex: 0
      m_ObjectToInstantiate: {fileID: 0}
      m_TileFlags: 1
      m_ColliderType: 1
  m_AnimatedTiles: {}
  m_TileAssetArray:
  - m_RefCount: 1
    m_Data: {fileID: 11400000, guid: cb793be43b0a19c47af81e9706d0f7bb, type: 2}
  - m_RefCount: 1
    m_Data: {fileID: 11400000, guid: 460f38fca17ee1d45837f7f5050ef78a, type: 2}
  - m_RefCount: 1
    m_Data: {fileID: 11400000, guid: 22a8689474cb3e04f93586e85bdbaa73, type: 2}
  - m_RefCount: 1
    m_Data: {fileID: 11400000, guid: 85ecd06319595b140b68cd212bb6c782, type: 2}
  - m_RefCount: 1
    m_Data: {fileID: 11400000, guid: 65c18e8145e06864b8d66ce141386bc2, type: 2}
  - m_RefCount: 1
    m_Data: {fileID: 11400000, guid: 319ac43bf651bfe46be413c3bc13d872, type: 2}
  - m_RefCount: 1
    m_Data: {fileID: 11400000, guid: db2f2741173609c48ae3b7f209814b78, type: 2}
  - m_RefCount: 1
    m_Data: {fileID: 11400000, guid: 41f89a4ce9813b245bf0b6f2ad4984fc, type: 2}
  - m_RefCount: 1
    m_Data: {fileID: 11400000, guid: d2a634593ada6484483336de5a197ff1, type: 2}
  - m_RefCount: 1
    m_Data: {fileID: 11400000, guid: 1af379810622d6f4fa146d914d2b8e97, type: 2}
  - m_RefCount: 1
    m_Data: {fileID: 11400000, guid: 20c40336c44994d4b950cca2d6df9329, type: 2}
  - m_RefCount: 1
    m_Data: {fileID: 11400000, guid: ba5700cf71d5bd948b215c76282220fc, type: 2}
  - m_RefCount: 1
    m_Data: {fileID: 11400000, guid: b7dcce1ac36a32444bcce9ca4ca3bf2d, type: 2}
  - m_RefCount: 1
    m_Data: {fileID: 11400000, guid: 9f8db9e2f6e3c2845b3c1225deff9cea, type: 2}
  - m_RefCount: 1
    m_Data: {fileID: 11400000, guid: b7d0cc0378ea0ce40969358eea71e115, type: 2}
  - m_RefCount: 1
    m_Data: {fileID: 11400000, guid: e5ca66685d6249a479cb42bf83dfc1c4, type: 2}
  - m_RefCount: 1
    m_Data: {fileID: 11400000, guid: d2d2526a3dc41bf418e846b1088f72e2, type: 2}
  - m_RefCount: 1
    m_Data: {fileID: 11400000, guid: fedfa8567f69a1c40bbaff731350f3bf, type: 2}
  - m_RefCount: 1
    m_Data: {fileID: 11400000, guid: bf650abd5797511429be513d11fdac7e, type: 2}
  - m_RefCount: 1
    m_Data: {fileID: 11400000, guid: 7c39cd2ed3c8a0448a8041ab6fb7db62, type: 2}
  - m_RefCount: 1
    m_Data: {fileID: 11400000, guid: a198198cc6c8fa0439c32041a8959b68, type: 2}
  - m_RefCount: 1
    m_Data: {fileID: 11400000, guid: 168a24302b92a814d8749618d70c199b, type: 2}
  - m_RefCount: 1
    m_Data: {fileID: 11400000, guid: d2f273b6e1166464e9499d6ef8570320, type: 2}
  m_TileSpriteArray:
  - m_RefCount: 1
    m_Data: {fileID: 21300000, guid: 0d2105f2f5285c04b885124cb4a0f8fa, type: 3}
  - m_RefCount: 1
    m_Data: {fileID: 21300000, guid: 26da5d73d53ccd644b77d93fd0681810, type: 3}
  - m_RefCount: 1
    m_Data: {fileID: 21300000, guid: 2c7014443e97a954eaf177ca46746c46, type: 3}
  - m_RefCount: 1
    m_Data: {fileID: 21300000, guid: 5264cb4aa33bede4ab91ee33bbf33e31, type: 3}
  - m_RefCount: 1
    m_Data: {fileID: 21300000, guid: 606b3b9c0285e0e4f8a517ac9b0d5099, type: 3}
  - m_RefCount: 1
    m_Data: {fileID: 21300000, guid: 11ecfc3db9296b44c9811fc5657ed4b7, type: 3}
  - m_RefCount: 1
    m_Data: {fileID: 21300000, guid: 80f71ba242e23634ca995d2051cbed2d, type: 3}
  - m_RefCount: 1
    m_Data: {fileID: 21300000, guid: 9a13d38469028e041b62c697d3013c43, type: 3}
  - m_RefCount: 1
    m_Data: {fileID: 21300000, guid: 817ca0f5328a79145b074301bd0a3699, type: 3}
  - m_RefCount: 1
    m_Data: {fileID: 21300000, guid: 7bb93af5468a1944db056a9b960b1c2b, type: 3}
  - m_RefCount: 1
    m_Data: {fileID: 21300000, guid: 87010566091b425429b5b184b55f3c35, type: 3}
  - m_RefCount: 1
    m_Data: {fileID: 21300000, guid: 9a1dbd66572d13f43911ffa278d5a4c9, type: 3}
  - m_RefCount: 1
    m_Data: {fileID: 21300000, guid: a329b95ad6e0890409a41061acac105a, type: 3}
  - m_RefCount: 1
    m_Data: {fileID: 21300000, guid: acb8685bdcd014d4191c6f027598e71c, type: 3}
  - m_RefCount: 1
    m_Data: {fileID: 21300000, guid: c041a330e8a751742840149d39bc0372, type: 3}
  - m_RefCount: 1
    m_Data: {fileID: 21300000, guid: af18fcd4f92ad3b4cbc9aa30a2ad20ef, type: 3}
  - m_RefCount: 1
    m_Data: {fileID: 21300000, guid: e15fa195476af414ba25c5106629f6e9, type: 3}
  - m_RefCount: 1
    m_Data: {fileID: 21300000, guid: da4dd058e55b3db419089e862f504de5, type: 3}
  - m_RefCount: 1
    m_Data: {fileID: 21300000, guid: c74558e871feb4d4fa0bd1b57d5eac5a, type: 3}
  - m_RefCount: 1
    m_Data: {fileID: 21300000, guid: f507ebe811e2fcd4ebaa13156a850a34, type: 3}
  - m_RefCount: 1
    m_Data: {fileID: 21300000, guid: e890680b33b91ca4eb3af7d2722b9ff7, type: 3}
  - m_RefCount: 1
    m_Data: {fileID: 21300000, guid: fe84cf7dee62fe14e9ce1f08a0cc3f0d, type: 3}
  - m_RefCount: 1
    m_Data: {fileID: 21300000, guid: c1f252aee26b55f43ab59d04e8ca5687, type: 3}
  m_TileMatrixArray:
  - m_RefCount: 23
    m_Data:
      e00: 1
      e01: 0
      e02: 0
      e03: 0
      e10: 0
      e11: 1
      e12: 0
      e13: 0
      e20: 0
      e21: 0
      e22: 1
      e23: 0
      e30: 0
      e31: 0
      e32: 0
      e33: 1
  m_TileColorArray:
  - m_RefCount: 23
    m_Data: {r: 1, g: 1, b: 1, a: 1}
  m_AnimationFrameRate: 1
  m_Color: {r: 1, g: 1, b: 1, a: 1}
  m_Origin: {x: -1, y: -5, z: 0}
  m_Size: {x: 5, y: 5, z: 1}
  m_TileAnchor: {x: 0.5, y: 0.5, z: 0}
  m_TileOrientation: 0
  m_TileOrientationMatrix:
    e00: 1
    e01: 0
    e02: 0
    e03: 0
    e10: 0
    e11: 1
    e12: 0
    e13: 0
    e20: 0
    e21: 0
    e22: 1
    e23: 0
    e30: 0
    e31: 0
    e32: 0
    e33: 1
--- !u!483693784 &6131239257120239860
TilemapRenderer:
  m_ObjectHideFlags: 0
  m_CorrespondingSourceObject: {fileID: 0}
  m_PrefabInstance: {fileID: 0}
  m_PrefabAsset: {fileID: 0}
  m_GameObject: {fileID: 5837772868813273263}
  m_Enabled: 0
  m_CastShadows: 0
  m_ReceiveShadows: 0
  m_DynamicOccludee: 0
  m_MotionVectors: 1
  m_LightProbeUsage: 0
  m_ReflectionProbeUsage: 0
  m_RenderingLayerMask: 1
  m_RendererPriority: 0
  m_Materials:
  - {fileID: 10754, guid: 0000000000000000f000000000000000, type: 0}
  m_StaticBatchInfo:
    firstSubMesh: 0
    subMeshCount: 0
  m_StaticBatchRoot: {fileID: 0}
  m_ProbeAnchor: {fileID: 0}
  m_LightProbeVolumeOverride: {fileID: 0}
  m_ScaleInLightmap: 1
  m_PreserveUVs: 0
  m_IgnoreNormalsForChartDetection: 0
  m_ImportantGI: 0
  m_StitchLightmapSeams: 0
  m_SelectedEditorRenderState: 0
  m_MinimumChartSize: 4
  m_AutoUVMaxDistance: 0.5
  m_AutoUVMaxAngle: 89
  m_LightmapParameters: {fileID: 0}
  m_SortingLayerID: 0
  m_SortingLayer: 0
  m_SortingOrder: 0
  m_ChunkSize: {x: 32, y: 32, z: 32}
  m_ChunkCullingBounds: {x: 0.5, y: 0.5, z: 0}
  m_MaxChunkCount: 16
  m_MaxFrameAge: 16
  m_SortOrder: 0
  m_Mode: 0
  m_DetectChunkCullingBounds: 0
  m_MaskInteraction: 0
--- !u!114 &114435809836582816
MonoBehaviour:
  m_ObjectHideFlags: 0
  m_CorrespondingSourceObject: {fileID: 0}
  m_PrefabInstance: {fileID: 0}
  m_PrefabAsset: {fileID: 0}
  m_GameObject: {fileID: 0}
  m_Enabled: 1
  m_EditorHideFlags: 0
  m_Script: {fileID: 12395, guid: 0000000000000000e000000000000000, type: 0}
  m_Name: Palette Settings
  m_EditorClassIdentifier: 
  cellSizing: 0
